[{
  "_id": {
    "$oid": "616effacecee0a2d573e3036"
  },
  "name": "atomicwallet",
  "display_name": "Atomic Wallet",
  "logo": "https://app.wealthica.com/images/institutions/atomicwallet.png",
  "instructions": "Please enter your Bitcoin or Ethereum address from your <strong>Atomic Wallet</strong>.<br>Go to <strong>Atomic Wallet</strong> &gt; Wallet, select Bitcoin or Ethereum and click Receive to get your address.",
  "provider": "Vezgo",
  "category": "crypto",
  "popupIntegration": false,
  "createdAt": {
    "$date": "2021-10-19T17:26:04.442Z"
  },
  "updatedAt": {
    "$date": "2021-10-19T17:26:04.442Z"
  },
  "__v": 0
},{
  "_id": {
    "$oid": "616effacecee0a2d573e3039"
  },
  "name": "binance",
  "display_name": "Binance",
  "logo": "https://app.wealthica.com/images/institutions/binance.png",
  "instructions": "Vezgo uses a secure, read-only access for connecting to <strong>Binance</strong>.<br><a href='https://www.binance.com/en/support/faq/360002502072' target='_blank' rel='noopener'>Follow the instructions from the Binance support site</a> for obtaining the Key and Secret needed to connect to Binance.",
  "provider": "Vezgo",
  "category": "crypto",
  "popupIntegration": false,
  "createdAt": {
    "$date": "2021-10-19T17:26:04.588Z"
  },
  "updatedAt": {
    "$date": "2021-10-19T17:26:04.588Z"
  },
  "__v": 0
},{
  "_id": {
    "$oid": "616effacecee0a2d573e303c"
  },
  "name": "bitcoin",
  "display_name": "Bitcoin",
  "logo": "https://app.wealthica.com/images/institutions/bitcoin.png",
  "instructions": "",
  "provider": "Vezgo",
  "category": "crypto",
  "popupIntegration": false,
  "createdAt": {
    "$date": "2021-10-19T17:26:04.592Z"
  },
  "updatedAt": {
    "$date": "2021-10-19T17:26:04.592Z"
  },
  "__v": 0
},{
  "_id": {
    "$oid": "616effacecee0a2d573e303f"
  },
  "name": "bitfinex",
  "display_name": "Bitfinex",
  "logo": "https://app.wealthica.com/images/institutions/bitfinex.png",
  "instructions": "Vezgo uses a secure, read-only access for connecting to <strong>Bitfinex</strong>.<br><a href='https://support.bitfinex.com/hc/en-us/articles/115003363429-How-to-create-and-revoke-a-Bitfinex-API-Key-' target='_blank' rel='noopener'>Follow the instructions from the Bitfinex support site</a> for obtaining the Key and Secret needed to connect to Bitfinex.",
  "provider": "Vezgo",
  "category": "crypto",
  "popupIntegration": false,
  "createdAt": {
    "$date": "2021-10-19T17:26:04.596Z"
  },
  "updatedAt": {
    "$date": "2021-10-19T17:26:04.596Z"
  },
  "__v": 0
},{
  "_id": {
    "$oid": "616effacecee0a2d573e3042"
  },
  "name": "bittrex",
  "display_name": "Bittrex",
  "logo": "https://app.wealthica.com/images/institutions/bittrex.png",
  "instructions": "Vezgo uses a secure, read-only access for connecting to <strong>Bittrex</strong>.<br><a href='https://bittrex.zendesk.com/hc/en-us/articles/360031921872-How-to-create-an-API-key-' target='_blank' rel='noopener'>Follow the instructions from the Bittrex support site</a> for obtaining the Key and Secret needed to connect to Bittrex.",
  "provider": "Vezgo",
  "category": "crypto",
  "popupIntegration": false,
  "createdAt": {
    "$date": "2021-10-19T17:26:04.601Z"
  },
  "updatedAt": {
    "$date": "2021-10-19T17:26:04.601Z"
  },
  "__v": 0
},{
  "_id": {
    "$oid": "616effacecee0a2d573e3045"
  },
  "name": "celsius",
  "display_name": "Celsius",
  "logo": "https://app.wealthica.com/images/institutions/celsius.png",
  "instructions": "Vezgo uses a secure, read-only access for connecting to <strong>Celsius</strong>.<br>Log in to your Celsius App, go to Settings then API Authorization to generate a secure API key for Vezgo.",
  "provider": "Vezgo",
  "category": "crypto",
  "popupIntegration": false,
  "createdAt": {
    "$date": "2021-10-19T17:26:04.604Z"
  },
  "updatedAt": {
    "$date": "2021-10-19T17:26:04.604Z"
  },
  "__v": 0
},{
  "_id": {
    "$oid": "616effacecee0a2d573e3048"
  },
  "name": "coinbase",
  "display_name": "Coinbase",
  "logo": "https://app.wealthica.com/images/institutions/coinbase.png",
  "instructions": "",
  "provider": "Vezgo",
  "category": "crypto",
  "popupIntegration": false,
  "createdAt": {
    "$date": "2021-10-19T17:26:04.607Z"
  },
  "updatedAt": {
    "$date": "2021-10-19T17:26:04.607Z"
  },
  "__v": 0
},{
  "_id": {
    "$oid": "616effacecee0a2d573e304b"
  },
  "name": "coinsquare",
  "display_name": "Coinsquare",
  "logo": "https://app.wealthica.com/images/institutions/coinsquare.png",
  "instructions": "",
  "provider": "Vezgo",
  "category": "crypto",
  "popupIntegration": false,
  "createdAt": {
    "$date": "2021-10-19T17:26:04.610Z"
  },
  "updatedAt": {
    "$date": "2021-10-19T17:26:04.610Z"
  },
  "__v": 0
},{
  "_id": {
    "$oid": "616effacecee0a2d573e304e"
  },
  "name": "cointracking",
  "display_name": "CoinTracking",
  "logo": "https://app.wealthica.com/images/institutions/cointracking.png",
  "instructions": "Vezgo uses a secure, read-only access for connecting to <strong>CoinTracking</strong>. Log in to <a href='https://cointracking.info/api/api.php' target='_blank' rel='noopener'>CoinTracking and click Account &gt; API</a> to generate an API key for Vezgo. Free CoinTracking accounts are limited to balances and crypto holdings. A paid CoinTracking subscription is required for your transactions to be imported.",
  "provider": "Vezgo",
  "category": "crypto",
  "popupIntegration": false,
  "createdAt": {
    "$date": "2021-10-19T17:26:04.613Z"
  },
  "updatedAt": {
    "$date": "2021-10-19T17:26:04.613Z"
  },
  "__v": 0
},{
  "_id": {
    "$oid": "616effacecee0a2d573e3051"
  },
  "name": "cryptocom",
  "display_name": "Crypto.com",
  "logo": "https://app.wealthica.com/images/institutions/cryptocom.png",
  "instructions": "Vezgo uses a secure, read-only access for connecting to <strong>Crypto.com</strong>.<br><a href='https://help.crypto.com/en/articles/3511424-api' target='_blank' rel='noopener'>Follow the instructions from the Crypto.com support site</a> for obtaining the Key and Secret needed to connect to Crypto.com.",
  "provider": "Vezgo",
  "category": "crypto",
  "popupIntegration": false,
  "createdAt": {
    "$date": "2021-10-19T17:26:04.618Z"
  },
  "updatedAt": {
    "$date": "2021-10-19T17:26:04.618Z"
  },
  "__v": 0
},{
  "_id": {
    "$oid": "616effacecee0a2d573e3054"
  },
  "name": "dash",
  "display_name": "Dash",
  "logo": "https://app.wealthica.com/images/institutions/dash.png",
  "instructions": "",
  "provider": "Vezgo",
  "category": "crypto",
  "popupIntegration": false,
  "createdAt": {
    "$date": "2021-10-19T17:26:04.621Z"
  },
  "updatedAt": {
    "$date": "2021-10-19T17:26:04.621Z"
  },
  "__v": 0
},{
  "_id": {
    "$oid": "616effacecee0a2d573e3057"
  },
  "name": "dogecoin",
  "display_name": "Dogecoin",
  "logo": "https://app.wealthica.com/images/institutions/dogecoin.png",
  "instructions": "",
  "provider": "Vezgo",
  "category": "crypto",
  "popupIntegration": false,
  "createdAt": {
    "$date": "2021-10-19T17:26:04.624Z"
  },
  "updatedAt": {
    "$date": "2021-10-19T17:26:04.624Z"
  },
  "__v": 0
},{
  "_id": {
    "$oid": "616effacecee0a2d573e305a"
  },
  "name": "ethereum",
  "display_name": "Ethereum",
  "logo": "https://app.wealthica.com/images/institutions/ethereum.png",
  "instructions": "",
  "provider": "Vezgo",
  "category": "crypto",
  "popupIntegration": false,
  "createdAt": {
    "$date": "2021-10-19T17:26:04.627Z"
  },
  "updatedAt": {
    "$date": "2021-10-19T17:26:04.627Z"
  },
  "__v": 0
},{
  "_id": {
    "$oid": "616effacecee0a2d573e305d"
  },
  "name": "exodus",
  "display_name": "Exodus",
  "logo": "https://app.wealthica.com/images/institutions/exodus.png",
  "instructions": "Please enter your Bitcoin or Ethereum address from your <strong>Exodus Wallet</strong>.<br>Go to <strong>Exodus Wallet</strong> &gt; Wallet, select Bitcoin or Ethereum and click Receive to get your address.",
  "provider": "Vezgo",
  "category": "crypto",
  "popupIntegration": false,
  "createdAt": {
    "$date": "2021-10-19T17:26:04.631Z"
  },
  "updatedAt": {
    "$date": "2021-10-19T17:26:04.631Z"
  },
  "__v": 0
},{
  "_id": {
    "$oid": "616effacecee0a2d573e3060"
  },
  "name": "ftx",
  "display_name": "FTX",
  "logo": "https://app.wealthica.com/images/institutions/ftx.png",
  "instructions": "Vezgo uses a secure, read-only access for connecting to <strong>FTX</strong>.<br>Log in to your <a href='https://ftx.com/profile' target='_blank' rel='noopener'>FTX Profile page</a> to generate a secure API key for Vezgo.",
  "provider": "Vezgo",
  "category": "crypto",
  "popupIntegration": false,
  "createdAt": {
    "$date": "2021-10-19T17:26:04.636Z"
  },
  "updatedAt": {
    "$date": "2021-10-19T17:26:04.636Z"
  },
  "__v": 0
},{
  "_id": {
    "$oid": "616effacecee0a2d573e3063"
  },
  "name": "gemini",
  "display_name": "Gemini",
  "logo": "https://app.wealthica.com/images/institutions/gemini.png",
  "instructions": "",
  "provider": "Vezgo",
  "category": "crypto",
  "popupIntegration": false,
  "createdAt": {
    "$date": "2021-10-19T17:26:04.639Z"
  },
  "updatedAt": {
    "$date": "2021-10-19T17:26:04.639Z"
  },
  "__v": 0
},{
  "_id": {
    "$oid": "616effacecee0a2d573e3066"
  },
  "name": "kraken",
  "display_name": "Kraken",
  "logo": "https://app.wealthica.com/images/institutions/kraken.png",
  "instructions": "Vezgo uses a secure, read-only access for connecting to <strong>Kraken</strong>.<br><a href='https://support.kraken.com/hc/en-us/articles/360000919966-How-to-generate-an-API-key-pair-' target='_blank' rel='noopener'>Follow the instructions from the Kraken support site</a> for obtaining the Key and Secret needed to connect to Kraken.",
  "provider": "Vezgo",
  "category": "crypto",
  "popupIntegration": false,
  "createdAt": {
    "$date": "2021-10-19T17:26:04.642Z"
  },
  "updatedAt": {
    "$date": "2021-10-19T17:26:04.642Z"
  },
  "__v": 0
},{
  "_id": {
    "$oid": "616effacecee0a2d573e3069"
  },
  "name": "litecoin",
  "display_name": "Litecoin",
  "logo": "https://app.wealthica.com/images/institutions/litecoin.png",
  "instructions": "",
  "provider": "Vezgo",
  "category": "crypto",
  "popupIntegration": false,
  "createdAt": {
    "$date": "2021-10-19T17:26:04.645Z"
  },
  "updatedAt": {
    "$date": "2021-10-19T17:26:04.645Z"
  },
  "__v": 0
},{
  "_id": {
    "$oid": "616effacecee0a2d573e306c"
  },
  "name": "metamask",
  "display_name": "Metamask",
  "logo": "https://app.wealthica.com/images/institutions/metamask.png",
  "instructions": "",
  "provider": "Vezgo",
  "category": "crypto",
  "popupIntegration": false,
  "createdAt": {
    "$date": "2021-10-19T17:26:04.650Z"
  },
  "updatedAt": {
    "$date": "2021-10-19T17:26:04.650Z"
  },
  "__v": 0
},{
  "_id": {
    "$oid": "616effacecee0a2d573e306f"
  },
  "name": "ndax",
  "display_name": "NDAX",
  "logo": "https://app.wealthica.com/images/institutions/ndax.png",
  "instructions": "Vezgo uses a secure, read-only access for connecting to <strong>NDAX</strong>.<br><a href='https://help.wealthica.com/help/how-to-add-an-ndax-connection' target='_blank' rel='noopener'>Follow the instructions from our support site</a> for obtaining the Key and Secret needed to connect to NDAX.",
  "provider": "Vezgo",
  "category": "crypto",
  "popupIntegration": false,
  "createdAt": {
    "$date": "2021-10-19T17:26:04.653Z"
  },
  "updatedAt": {
    "$date": "2021-10-19T17:26:04.653Z"
  },
  "__v": 0
},{
  "_id": {
    "$oid": "616effacecee0a2d573e3072"
  },
  "name": "newton",
  "display_name": "Newton",
  "logo": "https://app.wealthica.com/images/institutions/newton.png",
  "instructions": "Vezgo uses a secure, read-only access for connecting to <strong>Newton</strong>.<br><a href='https://help.wealthica.com/help/how-to-add-a-newton-api-connection' target='_blank' rel='noopener'>Follow the instructions from our support site</a> for obtaining the Key and Secret needed to connect to Newton.",
  "provider": "Vezgo",
  "category": "crypto",
  "popupIntegration": false,
  "createdAt": {
    "$date": "2021-10-19T17:26:04.656Z"
  },
  "updatedAt": {
    "$date": "2021-10-19T17:26:04.656Z"
  },
  "__v": 0
},{
  "_id": {
    "$oid": "616effacecee0a2d573e3075"
  },
  "name": "poloniex",
  "display_name": "Poloniex",
  "logo": "https://app.wealthica.com/images/institutions/poloniex.png",
  "instructions": "Vezgo uses a secure, read-only access for connecting to <strong>Poloniex</strong>.<br><a href='https://support.poloniex.com/hc/en-us/articles/360060622793-How-to-Create-an-API-Secret-Key-Set' target='_blank' rel='noopener'>Follow the instructions from the Poloniex support site</a> for obtaining the Key and Secret needed to connect to Poloniex.",
  "provider": "Vezgo",
  "category": "crypto",
  "popupIntegration": false,
  "createdAt": {
    "$date": "2021-10-19T17:26:04.659Z"
  },
  "updatedAt": {
    "$date": "2021-10-19T17:26:04.659Z"
  },
  "__v": 0
},{
  "_id": {
    "$oid": "616effacecee0a2d573e3078"
  },
  "name": "shakepay",
  "display_name": "Shakepay",
  "logo": "https://app.wealthica.com/images/institutions/shakepay.png",
  "instructions": "",
  "provider": "Vezgo",
  "category": "crypto",
  "popupIntegration": false,
  "createdAt": {
    "$date": "2021-10-19T17:26:04.662Z"
  },
  "updatedAt": {
    "$date": "2021-10-19T17:26:04.662Z"
  },
  "__v": 0
},{
  "_id": {
    "$oid": "616effacecee0a2d573e307b"
  },
  "name": "trustwallet",
  "display_name": "Trust Wallet",
  "logo": "https://app.wealthica.com/images/institutions/trustwallet.png",
  "instructions": "Please enter your Bitcoin, Ethereum, Dash or Ripple address from your <strong>Trust Wallet</strong>.<br>Go to <strong>Trust Wallet</strong> &gt; Wallet, select Bitcoin, Ethereum, Dash or Ripple and click Receive to get your address.",
  "provider": "Vezgo",
  "category": "crypto",
  "popupIntegration": false,
  "createdAt": {
    "$date": "2021-10-19T17:26:04.666Z"
  },
  "updatedAt": {
    "$date": "2021-10-19T17:26:04.666Z"
  },
  "__v": 0
},{
  "_id": {
    "$oid": "616effacecee0a2d573e307e"
  },
  "name": "wealthsimplecrypto",
  "display_name": "Wealthsimple Crypto",
  "logo": "https://app.wealthica.com/images/institutions/wealthsimplecrypto.png",
  "instructions": "",
  "provider": "Vezgo",
  "category": "crypto",
  "popupIntegration": false,
  "createdAt": {
    "$date": "2021-10-19T17:26:04.668Z"
  },
  "updatedAt": {
    "$date": "2021-10-19T17:26:04.668Z"
  },
  "__v": 0
},{
  "_id": {
    "$oid": "616effcaecee0a2d573e3081"
  },
  "name": "buyucoin",
  "display_name": "BuyUcoin",
  "logo": "https://mojek.s3.ap-south-1.amazonaws.com/buyucoin.png",
  "instructions": "",
  "provider": "BuyUcoin",
  "category": "crypto",
  "popupIntegration": true,
  "createdAt": {
    "$date": "2021-10-19T17:26:34.456Z"
  },
  "updatedAt": {
    "$date": "2021-10-19T17:26:34.456Z"
  },
  "__v": 0
},{
  "_id": {
    "$oid": "616effe2ecee0a2d573e3084"
  },
  "name": "zerodha",
  "display_name": "Zerodha",
  "logo": "https://mojek.s3.ap-south-1.amazonaws.com/zerodha.png",
  "instructions": "",
  "provider": "Zerodha",
  "category": "stocks",
  "popupIntegration": true,
  "createdAt": {
    "$date": "2021-10-19T17:26:58.957Z"
  },
  "updatedAt": {
    "$date": "2021-10-19T17:26:58.957Z"
  },
  "__v": 0
}]